<!-- Generated by IcoMoon.io -->
<svg version="1.1" xmlns="http://www.w3.org/2000/svg" width="24" height="24" viewBox="0 0 24 24">
<title>cloud-sync</title>
<path d="M23.928 12.066c0.047-0.353 0.072-0.709 0.072-1.066 0-2.403-0.938-4.666-2.634-6.366-1.7-1.697-3.963-2.634-6.366-2.634-1.875 0-3.675 0.572-5.2 1.653-1.25 0.884-2.238 2.053-2.897 3.416-0.297-0.044-0.597-0.069-0.903-0.069-1.603 0-3.109 0.625-4.244 1.756s-1.756 2.641-1.756 4.244 0.625 3.109 1.756 4.244c1.134 1.131 2.641 1.756 4.244 1.756h6.025c1.156 1.803 3.178 3 5.475 3 3.584 0 6.5-2.916 6.5-6.5 0-0.744-0.125-1.459-0.356-2.125 0.131-0.425 0.228-0.866 0.284-1.309zM6 17c-2.206 0-4-1.794-4-4s1.794-4 4-4c1.35 0 2.597 0.672 3.341 1.8l1.669-1.1c-0.563-0.853-1.316-1.531-2.187-1.997 1.206-2.247 3.581-3.703 6.178-3.703 3.797 0 6.897 3.038 6.997 6.813-1.169-1.122-2.753-1.812-4.497-1.812-3.584 0-6.5 2.916-6.5 6.5 0 0.516 0.059 1.019 0.175 1.5h-5.175zM17.5 21c-3.031 0-5.5-2.469-5.5-5.5s2.469-5.5 5.5-5.5 5.5 2.469 5.5 5.5-2.469 5.5-5.5 5.5z"></path>
<path d="M16.794 13.5l0.706 0.706 1.353-1.353c0.194-0.194 0.194-0.513 0-0.706l-1.353-1.353-0.706 0.706 0.506 0.506c-1.838 0.103-3.3 1.631-3.3 3.494v0.5h1v-0.5c0-1.306 1.006-2.381 2.284-2.491l-0.491 0.491z"></path>
<path d="M20 15.5c0 1.306-1.006 2.381-2.284 2.491l0.491-0.491-0.706-0.706-1.353 1.353c-0.194 0.194-0.194 0.513 0 0.706l1.353 1.353 0.706-0.706-0.506-0.506c1.837-0.103 3.3-1.631 3.3-3.494v-0.5h-1v0.5z"></path>
</svg>
